Info Command Sent:
07 30 00 00 00 03 5D
InfoCmd Received:
07 00 00 50 00 03 91
Read Command Sent:
07 02 80 00 00 09 AD
ReadCommand Received:
23 01 23 4F 66 00 00 50 00 D9 2C A5 71 EE C0 69 00 C0 00 55 00 83 20 87 20 8F 20 C4 8F 8F 8F 8F 8F B6 39
Info Command Sent:
07 30 00 00 00 03 5D
InfoCmd Received:
07 00 00 50 00 03 91
Read Command Sent:
07 02 80 00 00 09 AD
ReadCommand Received:
23 01 23 4F 66 00 00 50 00 D9 2C A5 71 EE C0 69 00 C0 00 55 00 83 20 87 20 8F 20 C4 8F 8F 8F 8F 8F B6 39
Info Command Sent:
07 30 00 00 00 03 5D
InfoCmd Received:
07 00 00 50 00 03 91
DevRev Command Sent:
07 30 00 00 00 03 5D
DevRevCommand Received:
07 00 00 50 00 03 91
DevRev Command Sent:
07 30 00 00 00 03 5D
DevRevCommand Received:
07 00 00 50 00 03 91
DevRev Command Sent:
07 30 00 00 00 03 5D
DevRevCommand Received:
07 00 00 50 00 03 91
DevRev Command Sent:
07 30 00 00 00 03 5D
DevRevCommand Received:
07 00 00 50 00 03 91
DevRev Command Sent:
07 30 00 00 00 03 5D
DevRevCommand Received:
07 00 00 50 00 03 91
DevRev Command Sent:
07 30 00 00 00 03 5D
DevRevCommand Received:
07 00 00 50 00 03 91
Info Command Sent:
07 30 02 00 00 00 D8
InfoCmd Received:
07 00 00 00 00 03 AD
Read Command Sent:
07 02 00 00 00 1E 2D
ReadCommand Received:
07 01 23 4F 66 37 8F
Read Command Sent:
07 02 00 01 00 17 AD
ReadCommand Received:
07 00 00 50 00 03 91
Read Command Sent:
07 02 00 02 00 18 AD
ReadCommand Received:
07 D9 2C A5 71 84 2F
Read Command Sent:
07 02 00 03 00 11 2D
ReadCommand Received:
07 EE C0 69 00 21 75
Read Command Sent:
07 02 00 04 00 1D 6D
ReadCommand Received:
07 C0 00 55 00 09 6D
Read Command Sent:
07 02 00 05 00 14 ED
ReadCommand Received:
07 83 20 87 20 65 FF
Read Command Sent:
07 02 00 06 00 1B ED
ReadCommand Received:
07 8F 20 C4 8F 5D B1
Read Command Sent:
07 02 00 07 00 12 6D
ReadCommand Received:
07 8F 8F 8F 8F D6 D1
Read Command Sent:
07 02 00 08 00 1D CD
ReadCommand Received:
07 9F 8F AF 8F D6 69
Read Command Sent:
07 02 00 09 00 14 4D
ReadCommand Received:
07 00 00 00 00 03 AD
Read Command Sent:
07 02 00 0A 00 1B 4D
ReadCommand Received:
07 00 00 00 00 03 AD
Read Command Sent:
07 02 00 0B 00 12 CD
ReadCommand Received:
07 00 00 00 00 03 AD
Read Command Sent:
07 02 00 0C 00 1E 8D
ReadCommand Received:
07 00 00 AF 8F 29 91
Read Command Sent:
07 02 00 0D 00 17 0D
ReadCommand Received:
07 3F FF FF FF 2A 11
Read Command Sent:
07 02 00 0E 00 18 0D
ReadCommand Received:
07 00 00 00 00 03 AD
Read Command Sent:
07 02 00 0F 00 11 8D
ReadCommand Received:
07 FF FF FF FF 2A 2D
Read Command Sent:
07 02 00 10 00 1D 9D
ReadCommand Received:
07 00 00 00 00 03 AD
Read Command Sent:
07 02 00 11 00 14 1D
ReadCommand Received:
07 3F FF FF FF 2A 11
Read Command Sent:
07 02 00 12 00 1B 1D
ReadCommand Received:
07 FF FF FF FF 2A 2D
Read Command Sent:
07 02 00 13 00 12 9D
ReadCommand Received:
07 FF FF FF FF 2A 2D
Read Command Sent:
07 02 00 14 00 1E DD
ReadCommand Received:
07 FF FF FF FF 2A 2D
Read Command Sent:
07 02 00 15 00 17 5D
ReadCommand Received:
07 00 00 55 55 F5 52
Read Command Sent:
07 02 00 16 00 18 5D
ReadCommand Received:
07 FF FF 00 00 27 AD
Read Command Sent:
07 02 00 17 00 11 DD
ReadCommand Received:
07 00 00 00 00 03 AD
Read Command Sent:
07 02 00 18 00 1E 7D
ReadCommand Received:
07 33 00 33 00 2E 75
Read Command Sent:
07 02 00 19 00 17 FD
ReadCommand Received:
07 33 00 1C 00 22 4D
Read Command Sent:
07 02 00 1A 00 18 FD
ReadCommand Received:
07 1C 00 1C 00 09 5D
Read Command Sent:
07 02 00 1B 00 11 7D
ReadCommand Received:
07 1C 00 1C 00 09 5D
Read Command Sent:
07 02 00 1C 00 1D 3D
ReadCommand Received:
07 3C 00 3C 00 09 15
Read Command Sent:
07 02 00 1D 00 14 BD
ReadCommand Received:
07 3C 00 3C 00 09 15
Read Command Sent:
07 02 00 1E 00 1B BD
ReadCommand Received:
07 3C 00 3C 00 09 15
Read Command Sent:
07 02 00 1F 00 12 3D
ReadCommand Received:
07 3C 00 1C 00 0A 8D
Info Command Sent:
07 30 00 00 00 03 5D
InfoCmd Received:
07 00 00 50 00 03 91
DevRev Command Sent:
07 30 00 00 00 03 5D
DevRevCommand Received:
07 00 00 50 00 03 91
DevRev Command Sent:
07 30 00 00 00 03 5D
DevRevCommand Received:
07 00 00 50 00 03 91
Info Command Sent:
07 30 00 00 00 03 5D
InfoCmd Received:
07 00 00 50 00 03 91
Info Command Sent:
07 30 00 00 00 03 5D
InfoCmd Received:
07 00 00 50 00 03 91
DevRev Command Sent:
07 30 00 00 00 03 5D
DevRevCommand Received:
07 00 00 50 00 03 91
DevRev Command Sent:
07 30 00 00 00 03 5D
DevRevCommand Received:
07 00 00 50 00 03 91
=== Validating Slot 0:
Trying to validate key: 
FF FF FF FF FF FF FF FF FF FF FF FF FF FF FF FF FF FF FF FF FF FF FF FF FF FF FF FF FF FF FF FF FF FF FF FF
=== Verify Slot 0:
CheckMac Command Sent:
54 28 00 00 00 BE CE 8E 9C 0D 85 EE 31 0D 32 FB 74 5B CB E1 1E E4 40 6D 67 AB 94 9C DF 69 89 C5 70 CB 6F 86 57 22 1F 5E 04 CD DA FD 31 1C B3 01 16 B9 0D 43 FD 2F 85 63 5F 09 73 00 49 F7 89 C2 E5 67 F7 37 3A 08 00 00 00 00 00 00 00 00 00 00 00 00 88 42
CheckMacCommand Received:
04 0F 23 42
=== Validating Slot 0:
Trying to validate key: 
00 00 A1 AC 57 FF 40 4E 45 D4 04 01 BD 0E D3 C6 73 D3 B7 B8 2D 85 D9 F3 13 B5 5E DA 3D 94 00 00 00 00 00 00
=== Verify Slot 0:
CheckMac Command Sent:
54 28 00 00 00 44 CF 5F 51 A7 29 98 33 E5 CB AA 2E DB F0 52 0F 72 61 81 5F D0 72 97 69 4C 79 4B 4C 46 B0 33 14 DC 54 AE 8E 63 BC 78 36 CA 06 FC DA 86 BA 93 F1 C9 72 A4 AB 6E 87 6E B3 94 B3 8F BF 66 3A 2E 4C 08 00 00 00 00 00 00 00 00 00 00 00 00 8F 6C
CheckMacCommand Received:
04 0F 23 42
=== Validating Slot 1:
Trying to validate key: 
FF FF FF FF FF FF FF FF FF FF FF FF FF FF FF FF FF FF FF FF FF FF FF FF FF FF FF FF FF FF FF FF FF FF FF FF
=== Verify Slot 1:
CheckMac Command Sent:
54 28 00 01 00 84 2B 79 B3 B7 B4 53 91 BF C1 BB 40 58 28 64 69 C7 BF F1 25 4D 6B 54 2C 4F DA F6 3F C4 E0 D1 FC C5 28 49 D9 1C 38 9C F0 92 2B FD EE C5 75 E6 F9 03 83 BA A9 00 DD 52 9B 98 EF 14 9E 37 64 A8 A1 08 00 01 00 00 00 00 00 00 00 00 00 00 B5 8F
CheckMacCommand Received:
04 0F 23 42
=== Validating Slot 1:
Trying to validate key: 
11 11 23 B6 CC 53 B7 B9 E9 BB 51 FD 2F 74 CD 0E 91 D9 7F EB 84 7B 98 09 F4 CD 93 6A B6 48 11 11 00 00 00 00
=== Verify Slot 1:
CheckMac Command Sent:
54 28 00 01 00 C5 87 93 15 C6 3E 0E EE 9A B7 CC 51 D5 60 77 C3 1D 1C 60 EA C9 63 11 EF 52 3C A2 31 43 0F 6E E4 80 EF 49 79 96 D2 43 A7 F3 99 18 8C C0 DD 8C C1 A0 AC 9F B7 62 5B EC CD 73 7F E8 FA 95 92 8E 7D 08 00 01 00 00 00 00 00 00 00 00 00 00 F2 39
CheckMacCommand Received:
04 0F 23 42
=== Validating Slot 2:
Trying to validate key: 
FF FF FF FF FF FF FF FF FF FF FF FF FF FF FF FF FF FF FF FF FF FF FF FF FF FF FF FF FF FF FF FF FF FF FF FF
=== Verify Slot 2:
CheckMac Command Sent:
54 28 00 02 00 05 E2 AE 76 D6 C8 C9 4C 74 AD DD 63 51 98 89 1D 72 7A CF B0 46 5C CE B1 56 9D 4D 24 C1 3F 0B CC 2C 98 8C CD 04 DA 6B 3C CE 06 39 F9 57 A7 9B 0A FB C1 66 35 81 CF 4D 4B 87 8E 9A E4 1B 7A FF CB 08 00 02 00 00 00 00 00 00 00 00 00 00 D7 26
CheckMacCommand Received:
04 0F 23 42
=== Validating Slot 2:
Trying to validate key: 
22 22 C1 7C 1C 4D 56 89 AA 00 43 E3 9C FB 6B 0B 68 49 E3 2C 24 A3 1B 06 34 49 1E 90 6B 62 22 22 00 00 00 00
=== Verify Slot 2:
CheckMac Command Sent:
54 28 00 02 00 45 3E C8 D8 E5 52 84 AA 4F A3 EE 75 CE D0 9C 77 C8 D7 3F 75 C3 55 8B 74 59 FF F9 16 40 6F A8 B4 D1 0F 6D C7 C8 CF CD 15 98 1F 74 31 23 91 90 59 40 CC 7E D2 8F C4 65 12 A0 86 07 63 4C 8E DC BD 08 00 02 00 00 00 00 00 00 00 00 00 00 52 F6
CheckMacCommand Received:
04 0F 23 42
=== Validating Slot 3:
Trying to validate key: 
FF FF FF FF FF FF FF FF FF FF FF FF FF FF FF FF FF FF FF FF FF FF FF FF FF FF FF FF FF FF FF FF FF FF FF FF
=== Verify Slot 3:
CheckMac Command Sent:
54 28 00 03 00 12 0B 9E 5A 48 D9 37 F4 B4 B7 01 22 13 BD 92 9F FF EE 93 D7 25 0F 03 C9 0B 95 71 59 F7 34 A0 3D C0 BE 40 B9 D4 AD 25 65 C9 D5 EB B3 B2 C9 0B 60 62 12 88 06 A3 97 32 A7 6B F7 72 36 F6 5A 05 C6 08 00 03 00 00 00 00 00 00 00 00 00 00 2A 92
CheckMacCommand Received:
04 01 00 C3
=== Validating Slot 3:
Trying to validate key: 
33 33 33 61 4A 17 9A 23 6C 7F E4 BE 2F 13 20 67 90 3D B5 1C 72 E0 C9 31 29 6D F4 5A 3E 44 33 33 00 00 00 00
=== Verify Slot 3:
CheckMac Command Sent:
54 28 00 03 00 53 67 B8 BC 58 63 F2 52 8E AD 13 34 90 F5 A4 F9 54 4B 02 9D A2 08 C0 8C 0E F6 1D 4B 75 63 3D 25 B5 49 7F 2A FF DC CB 37 86 22 F3 5D 9A A7 D5 A5 17 CA A6 DE 95 2E 42 C4 C1 C4 57 8A 22 D1 8A 67 08 00 03 00 00 00 00 00 00 00 00 00 00 CB 2E
CheckMacCommand Received:
04 01 00 C3
=== Validating Slot 4:
Trying to validate key: 
FF FF FF FF FF FF FF FF FF FF FF FF FF FF FF FF FF FF FF FF FF FF FF FF FF FF FF FF FF FF FF FF FF FF FF FF
=== Verify Slot 4:
CheckMac Command Sent:
54 28 00 04 00 4B F7 CE 51 9F 0B A4 68 DB 29 BF 52 47 65 32 1D 00 B3 32 F8 E0 24 00 84 43 B2 D6 D8 B8 10 90 41 E2 3A 5C 26 A2 37 A2 C5 88 2F 60 20 AB C7 1E 21 8D 0E 42 63 9D 9B E0 9A 97 39 38 EF 25 CF 7A B3 08 00 04 00 00 00 00 00 00 00 00 00 00 95 10
CheckMacCommand Received:
04 01 00 C3
=== Validating Slot 4:
Trying to validate key: 
44 44 91 18 68 3D B8 D3 F8 57 0C 74 2E DA DA 52 88 87 30 A5 09 18 54 56 C9 A1 72 38 CF 3C 44 44 00 00 00 00
=== Verify Slot 4:
CheckMac Command Sent:
54 28 00 04 00 8C 53 E8 B2 AE 95 5F C5 B5 1F D0 63 C4 9D 45 77 56 10 A1 BE 5D 1D BD 47 46 13 81 CA 37 3F 2D 29 F4 06 46 6E 18 E5 EF 35 85 52 30 31 4B 80 BD 7F F7 D3 25 FA FA EC 54 B8 DF 43 B2 95 92 29 F7 B5 08 00 04 00 00 00 00 00 00 00 00 00 00 7E BB
CheckMacCommand Received:
04 01 00 C3
=== Validating Slot 5:
Trying to validate key: 
FF FF FF FF FF FF FF FF FF FF FF FF FF FF FF FF FF FF FF FF FF FF FF FF FF FF FF FF FF FF FF FF FF FF FF FF
=== Verify Slot 5:
CheckMac Command Sent:
54 28 00 05 00 84 E3 FE 47 F5 3E 11 DB 02 9B 7D 81 7C 0E D2 9B 02 78 D1 19 9C 3A FD 3F 7B CF 3B 56 79 EC 80 45 FB 84 CD D8 99 AE CA 55 D3 5D 39 AD D9 5F F5 36 CC 95 23 E0 11 BD 6C CA 81 82 11 CF 9E 1A DA 4B 08 00 05 00 00 00 00 00 00 00 00 00 00 B1 66
CheckMacCommand Received:
04 01 00 C3
=== Validating Slot 5:
Trying to validate key: 
55 55 86 F2 B3 20 98 A6 E1 E6 33 7A 52 01 03 6A 0D B5 04 02 02 1C 55 B2 57 DF 0C 73 5F 05 55 55 00 00 00 00
=== Verify Slot 5:
CheckMac Command Sent:
54 28 00 05 00 51 B0 D4 C9 58 C4 C4 25 67 AF 91 2F C1 FB C8 C3 39 8F 25 7B FE F4 75 94 2C 65 B3 99 30 B1 78 CE 7B 56 CE C9 DA 84 64 E2 55 87 AA 0C 89 34 19 43 F9 71 D8 D4 57 13 F1 FC 2A FD AF A4 77 96 7D 29 08 00 05 00 00 00 00 00 00 00 00 00 00 93 8C
CheckMacCommand Received:
04 01 00 C3
=== Validating Slot 6:
Trying to validate key: 
FF FF FF FF FF FF FF FF FF FF FF FF FF FF FF FF FF FF FF FF FF FF FF FF FF FF FF FF FF FF FF FF FF FF FF FF
=== Verify Slot 6:
CheckMac Command Sent:
54 28 00 06 00 4A 41 E9 5E 9F 6C 76 3B B4 2B 3D 4D 79 6B 56 E7 E5 F6 55 D7 3D 11 B4 8C 61 21 6C 25 73 5D CB EA 57 C2 6E 3C 66 D1 47 22 67 85 C2 04 3B 24 7C 98 29 04 64 61 AF 56 F9 03 EB 8C E4 23 63 0C 77 7C 08 00 06 00 00 00 00 00 00 00 00 00 00 E9 EC
CheckMacCommand Received:
04 01 00 C3
=== Validating Slot 6:
Trying to validate key: 
66 66 D0 45 3A C2 25 57 F6 D4 6B 7D DF 96 89 DA 2C BC D9 C3 5A D5 9A 42 DE 30 32 CD 25 FC 66 66 00 00 00 00
=== Verify Slot 6:
CheckMac Command Sent:
54 28 00 06 00 43 D1 FF F3 E5 14 28 51 00 A7 EA 6B 30 DB E4 0B 92 5D 84 33 7C 2D F4 84 96 DC 25 B2 B6 0A 1E 06 AB 8B 93 6F 3C 6E AB 58 1D B9 A5 C3 56 BF 89 A8 78 62 D9 CF 85 CF 43 9F 45 F0 69 A8 C5 F5 D5 35 08 00 06 00 00 00 00 00 00 00 00 00 00 06 DC
CheckMacCommand Received:
04 01 00 C3
=== Validating Slot 7:
Trying to validate key: 
FF FF FF FF FF FF FF FF FF FF FF FF FF FF FF FF FF FF FF FF FF FF FF FF FF FF FF FF FF FF FF FF FF FF FF FF
=== Verify Slot 7:
CheckMac Command Sent:
54 28 00 07 00 83 2D 19 55 F5 9F E3 AE DA 9D FB 7C AD 13 F6 65 E7 BB F4 F8 F8 26 B1 47 99 3E D1 A4 35 3A BB EE 8D 20 66 21 D9 0B BE 76 54 54 C4 3C 55 4F B1 E1 62 7C 1C 22 BF 5E BB D9 CF B8 B5 3A 4E 5B 71 74 08 00 07 00 00 00 00 00 00 00 00 00 00 AB 7A
CheckMacCommand Received:
04 01 00 C3
=== Validating Slot 7:
Trying to validate key: 
77 77 2F 4A 9C C0 5E 45 99 BD 26 96 DD 49 F8 A5 06 C8 B6 39 CD 3D A8 4C C6 D1 3C 32 CA 0F 77 77 00 00 00 00
=== Verify Slot 7:
CheckMac Command Sent:
54 28 00 07 00 09 2E EA 0A 8F 43 8D B1 B2 36 AA 36 2D 38 67 56 75 DC 08 F0 1D 04 AC D1 7D 2E 57 81 B0 7B 69 AB 9E B3 05 49 15 E6 6F 4F 03 E6 15 B9 3C C0 89 D3 F0 F5 95 A3 E6 D1 52 43 3F 6C 9A DB 38 59 5A 5B 08 00 07 00 00 00 00 00 00 00 00 00 00 74 28
CheckMacCommand Received:
04 01 00 C3
=== Validating Slot 8:
Trying to validate key: 
FF FF FF FF FF FF FF FF FF FF FF FF FF FF FF FF FF FF FF FF FF FF FF FF FF FF FF FF FF FF FF FF FF FF FF FF FF FF FF FF FF FF FF FF FF FF FF FF FF FF FF FF FF FF FF FF FF FF FF FF FF FF FF FF FF FF FF FF FF FF FF FF FF FF FF FF FF FF FF FF FF FF FF FF FF FF FF FF FF FF FF FF FF FF FF FF FF FF FF FF FF FF FF FF FF FF FF FF FF FF FF FF FF FF FF FF FF FF FF FF FF FF FF FF FF FF FF FF FF FF FF FF FF FF FF FF FF FF FF FF FF FF FF FF FF FF FF FF FF FF FF FF FF FF FF FF FF FF FF FF FF FF FF FF FF FF FF FF FF FF FF FF FF FF FF FF FF FF FF FF FF FF FF FF FF FF FF FF FF FF FF FF FF FF FF FF FF FF FF FF FF FF FF FF FF FF FF FF FF FF FF FF FF FF FF FF FF FF FF FF FF FF FF FF FF FF FF FF FF FF FF FF FF FF FF FF FF FF FF FF FF FF FF FF FF FF FF FF FF FF FF FF FF FF FF FF FF FF FF FF FF FF FF FF FF FF FF FF FF FF FF FF FF FF FF FF FF FF FF FF FF FF FF FF FF FF FF FF FF FF FF FF FF FF FF FF FF FF FF FF FF FF FF FF FF FF FF FF FF FF FF FF FF FF FF FF FF FF FF FF FF FF FF FF FF FF FF FF FF FF FF FF FF FF FF FF FF FF FF FF FF F
=== Verify Slot 8:
CheckMac Command Sent:
54 28 00 08 00 D6 FC C0 8C F2 C9 40 FB 17 4A BD E3 71 25 5D 7E AC F2 5C 53 80 BE 23 26 2E C4 CF C4 66 40 60 34 F9 8E 23 97 40 7B 51 FA 51 6D 02 0B 2A 9A B8 0E F8 50 DA F5 9A 97 21 26 5E C6 7B 15 FD 74 B2 1C 08 00 08 00 00 00 00 00 00 00 00 00 00 88 FB
CheckMacCommand Received:
04 0F 23 42
=== Validating Slot 8:
Trying to validate key: 
88 88 C6 2A FE 1F 82 D4 E0 85 85 34 4D 77 B8 9D EC 36 F2 06 27 E4 F0 CF 03 0E 27 B8 EE E3 88 88 00 00 00 00 00 00 00 00 00 00 00 00 00 00 00 00 00 00 00 00 00 00 00 00 00 00 00 00 00 00 00 00 00 00 00 00 00 00 00 00 00 00 00 00 00 00 00 00 00 00 00 00 00 00 00 00 00 00 00 00 00 00 00 00 00 00 00 00 00 00 00 00 00 00 00 00 00 00 00 00 00 00 00 00 00 00 00 00 00 00 00 00 00 00 00 00 00 00 00 00 00 00 00 00 00 00 00 00 00 00 00 00 00 00 00 00 00 00 00 00 00 00 00 00 00 00 00 00 00 00 00 00 00 00 00 00 00 00 00 00 00 00 00 00 00 00 00 00 00 00 00 00 00 00 00 00 00 00 00 00 00 00 00 00 00 00 00 00 00 00 00 00 00 00 00 00 00 00 00 00 00 00 00 00 00 00 00 00 00 00 00 00 00 00 00 00 00 00 00 00 00 00 00 00 00 00 00 00 00 00 00 00 00 00 00 00 00 00 00 00 00 00 00 00 00 00 00 00 00 00 00 00 00 00 00 00 00 00 00 00 00 00 00 00 00 00 00 00 00 00 00 00 00 00 00 00 00 00 00 00 00 00 00 00 00 00 00 00 00 00 00 00 00 00 00 00 00 00 00 00 00 00 00 00 00 00 00 00 00 00 00 00 00 00 00 00 00 00 00 00 00 00 00 00 00 00 00 00 00 0
=== Verify Slot 8:
CheckMac Command Sent:
54 28 00 08 00 16 57 DA EE 02 53 FB 59 F2 40 CF F5 EE 5D 70 D8 01 50 CB 18 FC B7 E1 E9 32 25 7B B6 E5 70 FD 1C D9 41 F8 F6 07 F7 EC 25 F0 2A 63 26 7C F9 3A 09 4F 7F 19 29 AB 4B BA 5E 8F B1 3E E3 E4 B4 32 0F 08 00 08 00 00 00 00 00 00 00 00 00 00 32 4D
CheckMacCommand Received:
04 0F 23 42
=== Validating Slot 9:
Trying to validate key: 
FF FF FF FF FF FF FF FF FF FF FF FF FF FF FF FF FF FF FF FF FF FF FF FF FF FF FF FF FF FF FF FF FF FF FF FF FF FF FF FF FF FF FF FF FF FF FF FF FF FF FF FF FF FF FF FF FF FF FF FF FF FF FF FF FF FF FF FF FF FF FF FF
=== Verify Slot 9:
CheckMac Command Sent:
54 28 00 09 00 56 B3 F5 50 11 DE B6 B6 CC 36 E0 07 6B 95 82 32 57 AD 3B DD 79 B0 9E AC 35 87 26 A9 63 9F 9B 04 2B 74 82 1D B5 11 DF 1D 03 CA C3 EA 26 1E 64 29 69 CD 36 DF 4D DC A3 78 DE 74 11 65 86 2F 5C 25 08 00 09 00 00 00 00 00 00 00 00 00 00 BD CF
CheckMacCommand Received:
04 0F 23 42
=== Validating Slot 9:
Trying to validate key: 
99 99 4E 6D 4A F5 92 30 6B D2 D5 27 7D 77 B3 95 E3 C3 50 8C DA E0 98 1F 9D 28 17 98 8D F4 99 99 00 00 00 00 00 00 00 00 00 00 00 00 00 00 00 00 00 00 00 00 00 00 00 00 00 00 00 00 00 00 00 00 00 00 00 00 00 00 00 00
=== Verify Slot 9:
CheckMac Command Sent:
54 28 00 09 00 97 0F 0F B1 21 68 71 14 A6 2C F1 18 E8 CD 95 8C AC 0B AA A3 F6 A8 5B 6E 38 E8 D2 9B E2 CF 38 EC 0C BA 58 51 49 7F 3B F1 69 EF 70 FA 55 C1 B6 58 7E 81 ED 39 4A 6A 51 4D 39 72 99 06 9F 5B BD 1F 08 00 09 00 00 00 00 00 00 00 00 00 00 EF 62
CheckMacCommand Received:
04 0F 23 42
=== Validating Slot 10:
Trying to validate key: 
FF FF FF FF FF FF FF FF FF FF FF FF FF FF FF FF FF FF FF FF FF FF FF FF FF FF FF FF FF FF FF FF FF FF FF FF FF FF FF FF FF FF FF FF FF FF FF FF FF FF FF FF FF FF FF FF FF FF FF FF FF FF FF FF FF FF FF FF FF FF FF FF
=== Verify Slot 10:
CheckMac Command Sent:
54 28 00 0A 00 D7 6A 2A 13 30 F2 2C 72 81 22 02 2A 65 05 A7 E6 02 68 19 68 72 A1 18 31 3B 4A 7D 8D 60 FF D5 D4 8B 9E 25 9C A6 8A F4 1D 6C 0A 7A 6C AE F8 86 DD 88 7F 00 4A 30 0E EA 3E 5B 7D 42 A5 70 72 10 F4 08 00 0A 00 00 00 00 00 00 00 00 00 00 91 45
CheckMacCommand Received:
04 0F 23 42
=== Validating Slot 10:
Trying to validate key: 
AA AA 15 A2 55 0B D2 EA 9A F2 96 46 15 69 11 12 96 12 F6 F7 29 FD 50 7C 9A A2 67 92 A1 44 AA AA 00 00 00 00 00 00 00 00 00 00 00 00 00 00 00 00 00 00 00 00 00 00 00 00 00 00 00 00 00 00 00 00 00 00 00 00 00 00 00 00
=== Verify Slot 10:
CheckMac Command Sent:
54 28 00 0A 00 D0 FB 3F A8 77 9A DE 88 CD 9E AF 48 1D 76 35 0A AE D0 49 C4 B1 BE 58 29 70 05 37 1A A3 AB 28 F0 0E 92 1D 3F FD 7F 0C E0 F9 C5 95 AC A1 6D 6A D3 F5 8C 1A 0C CA C8 38 3A 5D F3 FF 9C A4 F7 CC 07 08 00 0A 00 00 00 00 00 00 00 00 00 00 5A D2
CheckMacCommand Received:
04 0F 23 42
=== Validating Slot 11:
Trying to validate key: 
FF FF FF FF FF FF FF FF FF FF FF FF FF FF FF FF FF FF FF FF FF FF FF FF FF FF FF FF FF FF FF FF FF FF FF FF FF FF FF FF FF FF FF FF FF FF FF FF FF FF FF FF FF FF FF FF FF FF FF FF FF FF FF FF FF FF FF FF FF FF FF FF
=== Verify Slot 11:
CheckMac Command Sent:
54 28 00 0B 00 10 56 5A 0A 86 25 99 E5 A8 95 C0 59 99 AE 47 64 04 2D B8 89 2E B6 15 EC 73 67 E2 0C 22 DB C5 D8 3C A0 80 E4 11 CC C7 4F 10 47 6E D5 4B 92 65 56 BE 17 7A FB 83 52 1F 21 B6 3B 2B 06 1C 64 A3 A0 08 00 0B 00 00 00 00 00 00 00 00 00 00 54 DA
CheckMacCommand Received:
04 0F 23 42
=== Validating Slot 11:
Trying to validate key: 
BB BB 24 DB 78 A8 70 64 A1 F0 8D C9 17 96 60 0A FF 62 D4 C4 4C 3E 10 20 2A AA 8F EC B6 8A BB BB 00 00 00 00 00 00 00 00 00 00 00 00 00 00 00 00 00 00 00 00 00 00 00 00 00 00 00 00 00 00 00 00 00 00 00 00 00 00 00 00
=== Verify Slot 11:
CheckMac Command Sent:
54 28 00 0B 00 50 B2 74 6C 96 AF 54 43 82 8B D1 6B 16 E6 5A BE 59 8B 28 4F AA AF D2 AF 77 C8 8D FF A0 0B 62 C0 7C 7C AB 44 98 82 FC B4 8F 63 57 A4 E3 8F 40 DB 07 89 64 46 A2 22 31 72 C3 02 4A 35 C0 CB 89 73 08 00 0B 00 00 00 00 00 00 00 00 00 00 09 06
CheckMacCommand Received:
04 0F 23 42
=== Validating Slot 12:
Trying to validate key: 
FF FF FF FF FF FF FF FF FF FF FF FF FF FF FF FF FF FF FF FF FF FF FF FF FF FF FF FF FF FF FF FF FF FF FF FF FF FF FF FF FF FF FF FF FF FF FF FF FF FF FF FF FF FF FF FF FF FF FF FF FF FF FF FF FF FF FF FF FF FF FF FF
=== Verify Slot 12:
CheckMac Command Sent:
54 28 00 0C 00 90 0E 8E CD A5 39 0F A1 5D 81 E2 7D 93 1E 6C 18 AF E8 97 14 27 A8 8F 71 7A 29 39 F1 1F 3A FF A8 CA 64 B5 91 CB EB 45 DF 08 58 05 FC 1F 8A 01 5E E8 36 D5 11 2F F1 64 E3 B3 99 16 57 21 EC EB 97 08 00 0C 00 00 00 00 00 00 00 00 00 00 19 0D
CheckMacCommand Received:
04 0F 23 42
=== Validating Slot 12:
Trying to validate key: 
CC CC C6 17 1A 52 45 AC D2 92 46 28 90 62 4C A5 66 2B 22 BB D1 95 DA 2A 9E 49 B8 08 85 0D CC CC 00 00 00 00 00 00 00 00 00 00 00 00 00 00 00 00 00 00 00 00 00 00 00 00 00 00 00 00 00 00 00 00 00 00 00 00 00 00 00 00
=== Verify Slot 12:
CheckMac Command Sent:
54 28 00 0C 00 D1 69 A9 2F B4 C3 CA FE 37 77 F3 8E 10 56 7F 72 04 46 07 D9 A3 A0 4C 34 7D 8B E4 E4 9D 6A 9D 90 C0 82 CA DC 16 04 6D A8 17 5D 8F F7 84 59 18 8A A6 95 83 F3 7F 35 0F 4D 87 E6 87 00 46 78 86 70 08 00 0C 00 00 00 00 00 00 00 00 00 00 E8 78
CheckMacCommand Received:
04 0F 23 42
=== Validating Slot 13:
Trying to validate key: 
FF FF FF FF FF FF FF FF FF FF FF FF FF FF FF FF FF FF FF FF FF FF FF FF FF FF FF FF FF FF FF FF FF FF FF FF FF FF FF FF FF FF FF FF FF FF FF FF FF FF FF FF FF FF FF FF FF FF FF FF FF FF FF FF FF FF FF FF FF FF FF FF
=== Verify Slot 13:
CheckMac Command Sent:
54 28 00 0D 00 C9 FA BE C4 FB 6C 7C 14 84 F3 A0 AC C8 C6 0D 96 B1 AD 36 35 E2 BD 8C 2C B2 47 9E 70 E0 16 F0 AC 6D 75 6D 67 93 D0 78 03 84 3D 2E 87 6B FE E4 E7 11 ED 3A 05 B7 4B 3F 4B 46 F6 2B 36 58 26 33 78 08 00 0D 00 00 00 00 00 00 00 00 00 00 02 A5
CheckMacCommand Received:
04 0F 23 42
=== Validating Slot 13:
Trying to validate key: 
DD DD BF AC 11 70 55 9C C9 B6 28 0F 92 95 DF 30 0D EA 22 A0 65 4E 21 C9 CE 74 10 5A 65 D2 DD DD 00 00 00 00 00 00 00 00 00 00 00 00 00 00 00 00 00 00 00 00 00 00 00 00 00 00 00 00 00 00 00 00 00 00 00 00 00 00 00 00
=== Verify Slot 13:
CheckMac Command Sent:
54 28 00 0D 00 0A 55 D9 26 0A F6 37 72 5E E9 B1 BE 45 FE 1F F0 06 0B A6 FA 5F B6 49 EF B5 A8 49 62 5F 46 8D 94 B2 24 1B 4D 51 D9 30 FE CE BA 1A 45 C6 FB 92 89 7D 62 61 64 EC 83 D3 39 6A 7E 91 3B 97 4D 02 40 08 00 0D 00 00 00 00 00 00 00 00 00 00 85 81
CheckMacCommand Received:
04 0F 23 42
=== Validating Slot 14:
Trying to validate key: 
FF FF FF FF FF FF FF FF FF FF FF FF FF FF FF FF FF FF FF FF FF FF FF FF FF FF FF FF FF FF FF FF FF FF FF FF FF FF FF FF FF FF FF FF FF FF FF FF FF FF FF FF FF FF FF FF FF FF FF FF FF FF FF FF FF FF FF FF FF FF FF FF
=== Verify Slot 14:
CheckMac Command Sent:
54 28 00 0E 00 4A B1 F3 87 1A 80 F2 D0 39 DF C2 CF C2 36 32 4A 5C 68 15 C0 DB AE 06 B2 B9 09 F5 55 DD 76 2A 7C C3 59 D8 0B F7 8A 0A 3E BC 2C 10 74 B4 68 9A 7A 90 E3 E9 91 2D C0 EE 33 8E 8F 94 8B 77 25 0E 4D 08 00 0E 00 00 00 00 00 00 00 00 00 00 DB 8A
CheckMacCommand Received:
04 0F 23 42
=== Validating Slot 14:
Trying to validate key: 
EE EE 08 55 77 BD A7 B8 A7 AF 58 D1 8B 92 F0 DF 79 AD 05 5E 42 82 E9 42 1E D1 3D 7B BD 2E EE EE 00 00 00 00 00 00 00 00 00 00 00 00 00 00 00 00 00 00 00 00 00 00 00 00 00 00 00 00 00 00 00 00 00 00 00 00 00 00 00 00
=== Verify Slot 14:
CheckMac Command Sent:
54 28 00 0E 00 8A 0D 0D E9 29 0A AD 2D 13 D5 D3 E1 3F 6E 44 A4 B1 C6 85 85 58 A7 C3 74 BC 6B A0 47 5C A5 C7 64 CE 28 12 9F F0 9E C3 2B 9C F9 9F 71 00 7E 52 BE 4B 9F D5 60 EE 0B 26 9F E3 33 DD AD 24 B1 91 21 08 00 0E 00 00 00 00 00 00 00 00 00 00 1D 78
CheckMacCommand Received:
04 0F 23 42
=== Validating Slot 15:
Trying to validate key: 
FF FF FF FF FF FF FF FF FF FF FF FF FF FF FF FF FF FF FF FF FF FF FF FF FF FF FF FF FF FF FF FF FF FF FF FF FF FF FF FF FF FF FF FF FF FF FF FF FF FF FF FF FF FF FF FF FF FF FF FF FF FF FF FF FF FF FF FF FF FF FF FF
=== Verify Slot 15:
CheckMac Command Sent:
54 28 00 0F 00 CB 68 28 4B 39 95 68 8B EE CB E4 F3 BC A6 57 FF 07 23 F4 4B D5 A0 81 37 BF CC 4B 3A DB D5 64 4C 10 4D AB FF 49 59 61 F3 B5 69 F4 DD 66 4F 5B 9F CB B0 D2 6E 88 0F D1 0E 25 CE 4D BD 01 90 B6 9D 08 00 0F 00 00 00 00 00 00 00 00 00 00 CA 42
CheckMacCommand Received:
04 01 00 C3
=== Validating Slot 15:
Trying to validate key: 
FF FF 68 B7 B8 01 BE 66 2C EC 74 68 0F E4 7D C1 C6 72 54 3A E5 BE DA 2E 91 9A E5 0D 32 A1 FF FF 00 00 00 00 00 00 00 00 00 00 00 00 00 00 00 00 00 00 00 00 00 00 00 00 00 00 00 00 00 00 00 00 00 00 00 00 00 00 00 00
=== Verify Slot 15:
CheckMac Command Sent:
54 28 00 0F 00 50 6A F9 00 D3 39 12 8D C5 65 93 AC 3B CC C8 F0 94 44 08 43 F9 7E 7B C1 A2 BC D2 16 56 17 12 09 14 99 9C FE 9C C3 98 2D 2A FD A8 7E 70 1F 68 8C C2 8E 75 D5 63 07 74 AE 8B B9 7B 68 6C 99 1E 05 08 00 0F 00 00 00 00 00 00 00 00 00 00 5C 4B
CheckMacCommand Received:
04 01 00 C3
=== Validating OTP
Trying to validate key: 
FF FF FF FF FF FF FF FF FF FF FF FF FF FF FF FF FF FF FF FF FF FF FF FF FF FF FF FF FF FF FF FF
Nonce Command Sent:
27 16 03 00 00 49 FB 0E 95 1A E1 C4 A3 11 E1 40 CB F3 3C 56 14 41 AB 38 9F 38 9B BB BA D7 78 8B A3 99 C3 65 25 83 6D
NonceCommand Received:
04 00 03 40
GenDig Command Sent:
07 15 01 00 00 30 07
GenDigCommand Received:
04 00 03 40
MAC Command Sent:
27 08 06 00 00 49 FB 0E 95 1A E1 C4 A3 11 E1 40 CB F3 3C 56 14 41 AB 38 9F 38 9B BB BA D7 78 8B A3 99 C3 65 25 FF 35
MacCommand Received:
23 99 23 71 D2 CE 38 3F 29 63 BA 7D C4 37 89 06 11 3F 2D 61 95 34 01 17 F8 F1 D2 57 73 A2 BF 01 EF 54 64
=== OTP 0 was VALIDATED
=== Validating OTP
Trying to validate key: 
FF FF FF FF FF FF FF FF FF FF FF FF FF FF FF FF FF FF FF FF FF FF FF FF FF FF FF FF FF FF FF FF
Nonce Command Sent:
27 16 03 00 00 0C 33 AC 33 86 48 0F 5F 32 9A 3A 4B 2D BF B3 C1 B2 F7 21 26 44 7B 32 04 CF B3 A5 F6 53 C3 76 D3 A0 58
NonceCommand Received:
04 00 03 40
GenDig Command Sent:
07 15 01 01 00 39 87
GenDigCommand Received:
04 00 03 40
MAC Command Sent:
27 08 06 00 00 0C 33 AC 33 86 48 0F 5F 32 9A 3A 4B 2D BF B3 C1 B2 F7 21 26 44 7B 32 04 CF B3 A5 F6 53 C3 76 D3 DC 00
MacCommand Received:
23 2E B2 81 6A 27 92 70 CF 02 A2 2D F3 E3 F0 66 43 42 64 92 70 F6 54 F1 1C 18 3B A3 92 49 B5 56 2D 2C 03
=== OTP 1 was VALIDATED